…
    ## Warning: There was 1 warning in `mutate()`.
    ## ℹ In argument: `prop_test = map2(...)`.
    ## Caused by warning in `prop.test()`:
    ## ! Chi-squared approximation may be incorrect

``` r
print (all_df)
```

    ## # A tibble: 51 × 4
    ##    city_state      estimate conf.low conf.high
    ##    <chr>              <dbl>    <dbl>     <dbl>
    ##  1 Albuquerque, NM    0.386    0.339     0.436
    ##  2 Atlanta, GA        0.383    0.353     0.414
    ##  3 Baltimore, MD      0.646    0.628     0.663
    ##  4 Baton Rouge, LA    0.462    0.415     0.510
    ##  5 Birmingham, AL     0.434    0.400     0.468
    ##  6 Boston, MA         0.505    0.465     0.544
    ##  7 Buffalo, NY        0.612    0.570     0.653
    ##  8 Charlotte, NC      0.300    0.267     0.335
    ##  9 Chicago, IL        0.736    0.724     0.747
    ## 10 Cincinnati, OH     0.445    0.409     0.482
    ## # ℹ 41 more rows
…
``` r
plot_data
```

    ## # A tibble: 51 × 4
    ##    city_state     estimate conf.low conf.high
    ##    <fct>             <dbl>    <dbl>     <dbl>
    ##  1 Tulsa, AL         0        0         0.793
    ##  2 Richmond, VA      0.263    0.224     0.307
    ##  3 Charlotte, NC     0.300    0.267     0.335
    ##  4 Memphis, TN       0.319    0.296     0.343
    ##  5 Tulsa, OK         0.331    0.294     0.370
    ##  6 Fresno, CA        0.347    0.306     0.390
    ##  7 Milwaukee, wI     0.361    0.334     0.390
    ##  8 Nashville, TN     0.362    0.329     0.397
    ##  9 Durham, NC        0.366    0.311     0.424
    ## 10 Sacramento, CA    0.370    0.322     0.420
    ## # ℹ 41 more rows
